ProcesadorMonociclo/simulation/qsim/procesadorMono.msim.vcd
$comment
	File created using the following command:
		vcd file procesadorMono.msim.vcd -direction
$end
$date
	Wed May 24 20:33:11 2017
$end
$version
	ModelSim Version 10.1d
$end
$timescale
	1ps
$end
$scope module programCounter_vlg_vec_tst $end
$var reg 1 ! clock $end
$var reg 31 " pSource [30:0] $end
$var wire 1 # Pc [30] $end
$var wire 1 $ Pc [29] $end
$var wire 1 % Pc [28] $end
$var wire 1 & Pc [27] $end
$var wire 1 ' Pc [26] $end
$var wire 1 ( Pc [25] $end
$var wire 1 ) Pc [24] $end
$var wire 1 * Pc [23] $end
$var wire 1 + Pc [22] $end
$var wire 1 , Pc [21] $end
$var wire 1 - Pc [20] $end
$var wire 1 . Pc [19] $end
$var wire 1 / Pc [18] $end
$var wire 1 0 Pc [17] $end
$var wire 1 1 Pc [16] $end
$var wire 1 2 Pc [15] $end
$var wire 1 3 Pc [14] $end
$var wire 1 4 Pc [13] $end
$var wire 1 5 Pc [12] $end
$var wire 1 6 Pc [11] $end
$var wire 1 7 Pc [10] $end
$var wire 1 8 Pc [9] $end
$var wire 1 9 Pc [8] $end
$var wire 1 : Pc [7] $end
$var wire 1 ; Pc [6] $end
$var wire 1 < Pc [5] $end
$var wire 1 = Pc [4] $end
$var wire 1 > Pc [3] $end
$var wire 1 ? Pc [2] $end
$var wire 1 @ Pc [1] $end
$var wire 1 A Pc [0] $end
$var wire 1 B sampler $end
$scope module i1 $end
$var wire 1 C gnd $end
$var wire 1 D vcc $end
$var wire 1 E unknown $end
$var tri1 1 F devclrn $end
$var tri1 1 G devpor $end
$var tri1 1 H devoe $end
$var wire 1 I clock~combout $end
$var wire 1 J clock~clkctrl_outclk $end
$var wire 1 K Count[0]~feeder_combout $end
$var wire 1 L Count[1]~feeder_combout $end
$var wire 1 M Count[4]~feeder_combout $end
$var wire 1 N Count[5]~feeder_combout $end
$var wire 1 O Count[7]~feeder_combout $end
$var wire 1 P Count[8]~feeder_combout $end
$var wire 1 Q Count[9]~feeder_combout $end
$var wire 1 R Count[10]~feeder_combout $end
$var wire 1 S Count[11]~feeder_combout $end
$var wire 1 T Count[12]~feeder_combout $end
$var wire 1 U Count[13]~feeder_combout $end
$var wire 1 V Count[14]~feeder_combout $end
$var wire 1 W Count[16]~feeder_combout $end
$var wire 1 X Count[17]~feeder_combout $end
$var wire 1 Y Count[18]~feeder_combout $end
$var wire 1 Z Count[19]~feeder_combout $end
$var wire 1 [ Count[21]~feeder_combout $end
$var wire 1 \ Count[23]~feeder_combout $end
$var wire 1 ] Count[24]~feeder_combout $end
$var wire 1 ^ Count[25]~feeder_combout $end
$var wire 1 _ Count[26]~feeder_combout $end
$var wire 1 ` Count[27]~feeder_combout $end
$var wire 1 a Count[28]~feeder_combout $end
$var wire 1 b Count[29]~feeder_combout $end
$var wire 1 c Count[30]~feeder_combout $end
$var wire 1 d Count [30] $end
$var wire 1 e Count [29] $end
$var wire 1 f Count [28] $end
$var wire 1 g Count [27] $end
$var wire 1 h Count [26] $end
$var wire 1 i Count [25] $end
$var wire 1 j Count [24] $end
$var wire 1 k Count [23] $end
$var wire 1 l Count [22] $end
$var wire 1 m Count [21] $end
$var wire 1 n Count [20] $end
$var wire 1 o Count [19] $end
$var wire 1 p Count [18] $end
$var wire 1 q Count [17] $end
$var wire 1 r Count [16] $end
$var wire 1 s Count [15] $end
$var wire 1 t Count [14] $end
$var wire 1 u Count [13] $end
$var wire 1 v Count [12] $end
$var wire 1 w Count [11] $end
$var wire 1 x Count [10] $end
$var wire 1 y Count [9] $end
$var wire 1 z Count [8] $end
$var wire 1 { Count [7] $end
$var wire 1 | Count [6] $end
$var wire 1 } Count [5] $end
$var wire 1 ~ Count [4] $end
$var wire 1 !! Count [3] $end
$var wire 1 "! Count [2] $end
$var wire 1 #! Count [1] $end
$var wire 1 $! Count [0] $end
$var wire 1 %! pSource~combout [30] $end
$var wire 1 &! pSource~combout [29] $end
$var wire 1 '! pSource~combout [28] $end
$var wire 1 (! pSource~combout [27] $end
$var wire 1 )! pSource~combout [26] $end
$var wire 1 *! pSource~combout [25] $end
$var wire 1 +! pSource~combout [24] $end
$var wire 1 ,! pSource~combout [23] $end
$var wire 1 -! pSource~combout [22] $end
$var wire 1 .! pSource~combout [21] $end
$var wire 1 /! pSource~combout [20] $end
$var wire 1 0! pSource~combout [19] $end
$var wire 1 1! pSource~combout [18] $end
$var wire 1 2! pSource~combout [17] $end
$var wire 1 3! pSource~combout [16] $end
$var wire 1 4! pSource~combout [15] $end
$var wire 1 5! pSource~combout [14] $end
$var wire 1 6! pSource~combout [13] $end
$var wire 1 7! pSource~combout [12] $end
$var wire 1 8! pSource~combout [11] $end
$var wire 1 9! pSource~combout [10] $end
$var wire 1 :! pSource~combout [9] $end
$var wire 1 ;! pSource~combout [8] $end
$var wire 1 <! pSource~combout [7] $end
$var wire 1 =! pSource~combout [6] $end
$var wire 1 >! pSource~combout [5] $end
$var wire 1 ?! pSource~combout [4] $end
$var wire 1 @! pSource~combout [3] $end
$var wire 1 A! pSource~combout [2] $end
$var wire 1 B! pSource~combout [1] $end
$var wire 1 C! pSource~combout [0] $end
$upscope $end
$upscope $end
$enddefinitions $end
#0
$dumpvars
0!
b0 "
0A
0@
0?
0>
0=
0<
0;
0:
09
08
07
06
05
04
03
02
01
00
0/
0.
0-
0,
0+
0*
0)
0(
0'
0&
0%
0$
0#
xB
0C
1D
xE
1F
1G
1H
0I
0J
0K
0L
0M
0N
0O
0P
0Q
0R
0S
0T
0U
0V
0W
0X
0Y
0Z
0[
0\
0]
0^
0_
0`
0a
0b
0c
0$!
0#!
0"!
0!!
0~
0}
0|
0{
0z
0y
0x
0w
0v
0u
0t
0s
0r
0q
0p
0o
0n
0m
0l
0k
0j
0i
0h
0g
0f
0e
0d
0C!
0B!
0A!
0@!
0?!
0>!
0=!
0<!
0;!
0:!
09!
08!
07!
06!
05!
04!
03!
02!
01!
00!
0/!
0.!
0-!
0,!
0+!
0*!
0)!
0(!
0'!
0&!
0%!
$end
#50000
1!
1I
1J
0B
#100000
0!
0I
0J
1B
#150000
1!
1I
1J
0B
#200000
0!
0I
0J
1B
#250000
1!
1I
1J
0B
#300000
0!
0I
0J
1B
#350000
1!
1I
1J
0B
#400000
0!
0I
0J
1B
#450000
1!
1I
1J
0B
#500000
0!
0I
0J
1B
#550000
1!
1I
1J
0B
#600000
0!
0I
0J
1B
#650000
1!
1I
1J
0B
#700000
0!
0I
0J
1B
#750000
1!
1I
1J
0B
#800000
0!
0I
0J
1B
#850000
1!
1I
1J
0B
#900000
0!
0I
0J
1B
#950000
1!
1I
1J
0B
